%YAML 1.1
%TAG !u! tag:unity3d.com,2011:
--- !u!114 &11400000
MonoBehaviour:
  m_ObjectHideFlags: 0
  m_CorrespondingSourceObject: {fileID: 0}
  m_PrefabInstance: {fileID: 0}
  m_PrefabAsset: {fileID: 0}
  m_GameObject: {fileID: 0}
  m_Enabled: 1
  m_EditorHideFlags: 0
  m_Script: {fileID: 11500000, guid: 90e908b13f7467f4185f3f45d43568c4, type: 3}
  m_Name: Backtrace Configuration
  m_EditorClassIdentifier: 
  ServerUrl: https://submit.backtrace.io/asmobile/53312f381efb0fab6c2a9d762040fe7bc184bc2e23df7db9b4d4dc010ba8303e/json
  Token: 
  ReportPerMin: 50
  DisableInEditor: 1
  HandleUnhandledExceptions: 1
  IgnoreSslValidation: 0
  DestroyOnLoad: 0
  Sampling: 0.01
  ReportFilterType: 0
  GameObjectDepth: -1
  NumberOfLogs: 10
  PerformanceStatistics: 0
  SendUnhandledGameCrashesOnGameStartup: 1
  CaptureNativeCrashes: 1
  HandleANR: 1
  AnrWatchdogTimeout: 5000
  OomReports: 0
  ClientSideUnwinding: 0
  SymbolsUploadToken: 
  DeduplicationStrategy: 0
  EnableBreadcrumbsSupport: 0
  BacktraceBreadcrumbsLevel: 127
  LogLevel: 31
  UseNormalizedExceptionMessage: 0
  MinidumpType: 524286
  GenerateScreenshotOnException: 0
  AttachmentPaths: []
  DatabasePath: ${Application.persistentDataPath}/backtrace
  EnableMetricsSupport: 1
  TimeIntervalInMin: 30
  Enabled: 0
  AddUnityLogToReport: 0
  AutoSendMode: 1
  CreateDatabase: 1
  MaxRecordCount: 8
  MaxDatabaseSize: 0
  RetryInterval: 60
  RetryLimit: 3
  RetryOrder: 0
