Library\Bee\artifacts\mvdfrm\UnityEngine.Purchasing.AppleCore.ref.dll_E2ABA50E49ADB8F0.mvfrm
Library\Bee\artifacts\mvdfrm\UnityEngine.UI.ref.dll_AFC2E85BC2EDBC0B.mvfrm
Library\Bee\artifacts\mvdfrm\Unity.Compat.dll_BF1C3A400F471BD4.mvfrm
Library\Bee\artifacts\mvdfrm\Unity.Tasks.dll_E59340E2C7414818.mvfrm
Library\Bee\artifacts\mvdfrm\UnityEngine.AccessibilityModule.dll_7DEA46301FC08D31.mvfrm
Library\Bee\artifacts\mvdfrm\UnityEngine.AIModule.dll_8320301F54835C79.mvfrm
Library\Bee\artifacts\mvdfrm\UnityEngine.AndroidJNIModule.dll_9AB2515DA03F5EB7.mvfrm
Library\Bee\artifacts\mvdfrm\UnityEngine.AnimationModule.dll_B373374431393797.mvfrm
Library\Bee\artifacts\mvdfrm\UnityEngine.ARModule.dll_3C92F522B1A0BB42.mvfrm
Library\Bee\artifacts\mvdfrm\UnityEngine.AssetBundleModule.dll_102E9B8D958B37A5.mvfrm
Library\Bee\artifacts\mvdfrm\UnityEngine.AudioModule.dll_4B27933E27145AC9.mvfrm
Library\Bee\artifacts\mvdfrm\UnityEngine.ClothModule.dll_B20FF039013139AD.mvfrm
Library\Bee\artifacts\mvdfrm\UnityEngine.CoreModule.dll_34285636CFE35FF0.mvfrm
Library\Bee\artifacts\mvdfrm\UnityEngine.CrashReportingModule.dll_9A7733B261E14988.mvfrm
Library\Bee\artifacts\mvdfrm\UnityEngine.DirectorModule.dll_FF23A572DFD62A0D.mvfrm
Library\Bee\artifacts\mvdfrm\UnityEngine.dll_E128645DE18946A5.mvfrm
Library\Bee\artifacts\mvdfrm\UnityEngine.DSPGraphModule.dll_047506DC5236FB2E.mvfrm
Library\Bee\artifacts\mvdfrm\UnityEngine.GameCenterModule.dll_C4FF9B7866804FA8.mvfrm
Library\Bee\artifacts\mvdfrm\UnityEngine.GIModule.dll_1B5C792CF0324493.mvfrm
Library\Bee\artifacts\mvdfrm\UnityEngine.GridModule.dll_11997224E837F5E7.mvfrm
Library\Bee\artifacts\mvdfrm\UnityEngine.HotReloadModule.dll_34BBF54A0C6C5319.mvfrm
Library\Bee\artifacts\mvdfrm\UnityEngine.ImageConversionModule.dll_C10A94AA99F3BC84.mvfrm
Library\Bee\artifacts\mvdfrm\UnityEngine.IMGUIModule.dll_838732A4ED45EEAA.mvfrm
Library\Bee\artifacts\mvdfrm\UnityEngine.InputLegacyModule.dll_A173B6AC2D7CED96.mvfrm
Library\Bee\artifacts\mvdfrm\UnityEngine.InputModule.dll_B19D5AEE9D4C7F6D.mvfrm
Library\Bee\artifacts\mvdfrm\UnityEngine.JSONSerializeModule.dll_DE01CF6C1EFBEDBB.mvfrm
Library\Bee\artifacts\mvdfrm\UnityEngine.LocalizationModule.dll_A917E5270AE3CBBA.mvfrm
Library\Bee\artifacts\mvdfrm\UnityEngine.ParticleSystemModule.dll_ED897CFECFF2D516.mvfrm
Library\Bee\artifacts\mvdfrm\UnityEngine.PerformanceReportingModule.dll_4A8247F84836E4AF.mvfrm
Library\Bee\artifacts\mvdfrm\UnityEngine.Physics2DModule.dll_00192734D2362F2C.mvfrm
Library\Bee\artifacts\mvdfrm\UnityEngine.PhysicsModule.dll_6F566E573D2C28BA.mvfrm
Library\Bee\artifacts\mvdfrm\UnityEngine.ProfilerModule.dll_3169DEA9792FB11A.mvfrm
Library\Bee\artifacts\mvdfrm\UnityEngine.RuntimeInitializeOnLoadManagerInitializerModule.dll_2D23F4766D7BF7F5.mvfrm
Library\Bee\artifacts\mvdfrm\UnityEngine.ScreenCaptureModule.dll_F7E97CF133681A1D.mvfrm
Library\Bee\artifacts\mvdfrm\UnityEngine.SharedInternalsModule.dll_451BD3801121B7D4.mvfrm
Library\Bee\artifacts\mvdfrm\UnityEngine.SpriteMaskModule.dll_AE2C0E0887EFE522.mvfrm
Library\Bee\artifacts\mvdfrm\UnityEngine.SpriteShapeModule.dll_298FC8E84B2D6FAF.mvfrm
Library\Bee\artifacts\mvdfrm\UnityEngine.StreamingModule.dll_6808249480C0EED5.mvfrm
Library\Bee\artifacts\mvdfrm\UnityEngine.SubstanceModule.dll_44B338DDCC13ECE3.mvfrm
Library\Bee\artifacts\mvdfrm\UnityEngine.SubsystemsModule.dll_18D9746A5637CD35.mvfrm
Library\Bee\artifacts\mvdfrm\UnityEngine.TerrainModule.dll_899CE9C612EA71A8.mvfrm
Library\Bee\artifacts\mvdfrm\UnityEngine.TerrainPhysicsModule.dll_EE0425D1E935CFA3.mvfrm
Library\Bee\artifacts\mvdfrm\UnityEngine.TextCoreFontEngineModule.dll_CA8DD5CDAB5F036E.mvfrm
Library\Bee\artifacts\mvdfrm\UnityEngine.TextCoreTextEngineModule.dll_12760C3F3AE2BC8C.mvfrm
Library\Bee\artifacts\mvdfrm\UnityEngine.TextRenderingModule.dll_2128EEFBEA9F9A12.mvfrm
Library\Bee\artifacts\mvdfrm\UnityEngine.TilemapModule.dll_289951472AA752B1.mvfrm
Library\Bee\artifacts\mvdfrm\UnityEngine.TLSModule.dll_1CBA9B5AEDBEBB0E.mvfrm
Library\Bee\artifacts\mvdfrm\UnityEngine.UIElementsModule.dll_1D17D5D25964092C.mvfrm
Library\Bee\artifacts\mvdfrm\UnityEngine.UIElementsNativeModule.dll_38A96CD91D401E03.mvfrm
Library\Bee\artifacts\mvdfrm\UnityEngine.UIModule.dll_7E93CE4CB0CA6225.mvfrm
Library\Bee\artifacts\mvdfrm\UnityEngine.UmbraModule.dll_C5FC3F56B43B063C.mvfrm
Library\Bee\artifacts\mvdfrm\UnityEngine.UNETModule.dll_C6CE9E201CF25569.mvfrm
Library\Bee\artifacts\mvdfrm\UnityEngine.UnityAnalyticsModule.dll_0D28EDC87C1A2712.mvfrm
Library\Bee\artifacts\mvdfrm\UnityEngine.UnityConnectModule.dll_D88E29CDBC6806A6.mvfrm
Library\Bee\artifacts\mvdfrm\UnityEngine.UnityCurlModule.dll_E68FD875A14D2984.mvfrm
Library\Bee\artifacts\mvdfrm\UnityEngine.UnityTestProtocolModule.dll_E8815B7F2221FFF2.mvfrm
Library\Bee\artifacts\mvdfrm\UnityEngine.UnityWebRequestAssetBundleModule.dll_BFDDDA9343844763.mvfrm
Library\Bee\artifacts\mvdfrm\UnityEngine.UnityWebRequestAudioModule.dll_C27E9BD6CEA1AF47.mvfrm
Library\Bee\artifacts\mvdfrm\UnityEngine.UnityWebRequestModule.dll_D2A99C54A4E85703.mvfrm
Library\Bee\artifacts\mvdfrm\UnityEngine.UnityWebRequestTextureModule.dll_8E397BFE72D103FC.mvfrm
Library\Bee\artifacts\mvdfrm\UnityEngine.UnityWebRequestWWWModule.dll_DD38519B2AA278F8.mvfrm
Library\Bee\artifacts\mvdfrm\UnityEngine.VehiclesModule.dll_76E69EF259FFF9A8.mvfrm
Library\Bee\artifacts\mvdfrm\UnityEngine.VFXModule.dll_9D9933C9C42C247B.mvfrm
Library\Bee\artifacts\mvdfrm\UnityEngine.VideoModule.dll_703117A8E9A6766E.mvfrm
Library\Bee\artifacts\mvdfrm\UnityEngine.VRModule.dll_D165F4D25284E79D.mvfrm
Library\Bee\artifacts\mvdfrm\UnityEngine.WindModule.dll_AA77315F6119DE59.mvfrm
Library\Bee\artifacts\mvdfrm\UnityEngine.XRModule.dll_0424B7D6DBBF34FB.mvfrm
Library\Bee\artifacts\mvdfrm\Unity.Burst.Cecil.dll_83E830323506678F.mvfrm
Library\Bee\artifacts\mvdfrm\Unity.Burst.Cecil.Mdb.dll_9A2E48DB2DD5968C.mvfrm
Library\Bee\artifacts\mvdfrm\Unity.Burst.Cecil.Pdb.dll_B180C14AAC8A980F.mvfrm
Library\Bee\artifacts\mvdfrm\Unity.Burst.Cecil.Rocks.dll_CC95D5C02612400F.mvfrm
Library\Bee\artifacts\mvdfrm\Unity.Burst.Unsafe.dll_55DC6E2BFDC98554.mvfrm
Library\Bee\artifacts\mvdfrm\Unity.VisualScripting.Antlr3.Runtime.dll_7742766443291B3C.mvfrm